C:\Petr\Programming IDE\WorkSpaceEE\javaPractice\src\main\java\cz\ppfa\abde\services\StringService.java
C:\Petr\Programming IDE\WorkSpaceEE\javaPractice\src\main\java\cz\ppfa\abde\entities\Ctenar.java
C:\Petr\Programming IDE\WorkSpaceEE\javaPractice\src\main\java\cz\ppfa\abde\repositories\CtenarRepository.java
C:\Petr\Programming IDE\WorkSpaceEE\javaPractice\src\main\java\cz\ppfa\abde\controllers\MainController.java
C:\Petr\Programming IDE\WorkSpaceEE\javaPractice\src\main\java\cz\ppfa\abde\Application.java
C:\Petr\Programming IDE\WorkSpaceEE\javaPractice\src\main\java\cz\ppfa\abde\config\ContextConfig.java
